PWD /Users/florian/Desktop/Handout
INPUT /usr/local/texlive/2018/texmf.cnf
INPUT /usr/local/texlive/2018/texmf-dist/web2c/texmf.cnf
INPUT /usr/local/texlive/2018/texmf-var/web2c/pdftex/pdflatex.fmt
INPUT /Users/florian/Desktop/Handout/handout.tex
OUTPUT /Users/florian/Desktop/Handout/handout.log
INPUT /usr/local/texlive/2018/texmf-dist/tex/latex/base/article.cls
INPUT /usr/local/texlive/2018/texmf-dist/tex/latex/base/article.cls
INPUT /usr/local/texlive/2018/texmf-dist/tex/latex/base/size10.clo
INPUT /usr/local/texlive/2018/texmf-dist/tex/latex/base/size10.clo
INPUT /usr/local/texlive/2018/texmf-dist/tex/latex/ucs/ucs.sty
INPUT /usr/local/texlive/2018/texmf-dist/tex/latex/ucs/ucs.sty
INPUT /usr/local/texlive/2018/texmf-dist/tex/latex/ucs/data/uni-global.def
INPUT /usr/local/texlive/2018/texmf-dist/tex/latex/ucs/data/uni-global.def
INPUT /usr/local/texlive/2018/texmf-dist/tex/latex/base/inputenc.sty
INPUT /usr/local/texlive/2018/texmf-dist/tex/latex/base/inputenc.sty
INPUT /usr/local/texlive/2018/texmf-dist/tex/latex/ucs/utf8x.def
INPUT /usr/local/texlive/2018/texmf-dist/tex/latex/ucs/utf8x.def
INPUT /usr/local/texlive/2018/texmf-dist/tex/latex/base/fontenc.sty
INPUT /usr/local/texlive/2018/texmf-dist/tex/latex/base/fontenc.sty
INPUT /usr/local/texlive/2018/texmf-dist/tex/latex/base/t1enc.def
INPUT /usr/local/texlive/2018/texmf-dist/tex/latex/base/t1enc.def
INPUT /usr/local/texlive/2018/texmf-dist/fonts/map/fontname/texfonts.map
INPUT /usr/local/texlive/2018/texmf-dist/fonts/tfm/jknappen/ec/ecrm1000.tfm
INPUT /usr/local/texlive/2018/texmf-dist/tex/latex/titlesec/titlesec.sty
INPUT /usr/local/texlive/2018/texmf-dist/tex/latex/titlesec/titlesec.sty
INPUT /Users/florian/Desktop/Handout/handout.aux
INPUT /Users/florian/Desktop/Handout/handout.aux
OUTPUT /Users/florian/Desktop/Handout/handout.aux
INPUT /usr/local/texlive/2018/texmf-dist/tex/latex/ucs/ucsencs.def
INPUT /usr/local/texlive/2018/texmf-dist/tex/latex/ucs/ucsencs.def
INPUT /usr/local/texlive/2018/texmf-dist/fonts/tfm/jknappen/ec/ecrm1728.tfm
INPUT /usr/local/texlive/2018/texmf-dist/fonts/tfm/jknappen/ec/ecrm1200.tfm
INPUT /usr/local/texlive/2018/texmf-dist/fonts/tfm/public/cm/cmr12.tfm
INPUT /usr/local/texlive/2018/texmf-dist/fonts/tfm/public/cm/cmr8.tfm
INPUT /usr/local/texlive/2018/texmf-dist/fonts/tfm/public/cm/cmr6.tfm
INPUT /usr/local/texlive/2018/texmf-dist/fonts/tfm/public/cm/cmmi12.tfm
INPUT /usr/local/texlive/2018/texmf-dist/fonts/tfm/public/cm/cmmi8.tfm
INPUT /usr/local/texlive/2018/texmf-dist/fonts/tfm/public/cm/cmmi6.tfm
INPUT /usr/local/texlive/2018/texmf-dist/fonts/tfm/public/cm/cmsy10.tfm
INPUT /usr/local/texlive/2018/texmf-dist/fonts/tfm/public/cm/cmsy8.tfm
INPUT /usr/local/texlive/2018/texmf-dist/fonts/tfm/public/cm/cmsy6.tfm
INPUT /usr/local/texlive/2018/texmf-dist/tex/latex/ucs/data/uni-0.def
INPUT /usr/local/texlive/2018/texmf-dist/tex/latex/ucs/data/uni-0.def
INPUT /usr/local/texlive/2018/texmf-dist/fonts/tfm/jknappen/ec/ecbx1200.tfm
OUTPUT /Users/florian/Desktop/Handout/handout.pdf
INPUT /usr/local/texlive/2018/texmf-var/fonts/map/pdftex/updmap/pdftex.map
INPUT /Users/florian/Desktop/Handout/handout.aux
INPUT /usr/local/texlive/2018/texmf-dist/fonts/enc/dvips/cm-super/cm-super-t1.enc
INPUT /usr/local/texlive/2018/texmf-dist/fonts/type1/public/amsfonts/cm/cmmi10.pfb
INPUT /usr/local/texlive/2018/texmf-dist/fonts/type1/public/amsfonts/cm/cmr10.pfb
INPUT /usr/local/texlive/2018/texmf-dist/fonts/type1/public/amsfonts/cm/cmr7.pfb
INPUT /usr/local/texlive/2018/texmf-dist/fonts/type1/public/cm-super/sfbx1200.pfb
INPUT /usr/local/texlive/2018/texmf-dist/fonts/type1/public/cm-super/sfrm1000.pfb
INPUT /usr/local/texlive/2018/texmf-dist/fonts/type1/public/cm-super/sfrm1728.pfb
