\relax 
\@writefile{toc}{\contentsline {section}{\numberline {1}Ketten}{1}}
\@writefile{toc}{\contentsline {section}{\numberline {2}Gap Penalties}{1}}
\@writefile{toc}{\contentsline {section}{\numberline {3}Suzuki Kasahara Formulation}{1}}
\@writefile{toc}{\contentsline {section}{\numberline {4}Banded Dynamic Programming}{1}}
