\relax 
\providecommand\hyper@newdestlabel[2]{}
\providecommand\HyperFirstAtBeginDocument{\AtBeginDocument}
\HyperFirstAtBeginDocument{\ifx\hyper@anchor\@undefined
\global\let\oldcontentsline\contentsline
\gdef\contentsline#1#2#3#4{\oldcontentsline{#1}{#2}{#3}}
\global\let\oldnewlabel\newlabel
\gdef\newlabel#1#2{\newlabelxx{#1}#2}
\gdef\newlabelxx#1#2#3#4#5#6{\oldnewlabel{#1}{{#2}{#3}}}
\AtEndDocument{\ifx\hyper@anchor\@undefined
\let\contentsline\oldcontentsline
\let\newlabel\oldnewlabel
\fi}
\fi}
\global\let\hyper@last\relax 
\gdef\HyperFirstAtBeginDocument#1{#1}
\providecommand\HyField@AuxAddToFields[1]{}
\providecommand\HyField@AuxAddToCoFields[2]{}
\catcode `"\active 
\babel@aux{ngerman}{}
\@writefile{nav}{\headcommand {\slideentry {0}{0}{1}{1/1}{}{0}}}
\@writefile{nav}{\headcommand {\beamer@framepages {1}{1}}}
\@writefile{nav}{\headcommand {\slideentry {0}{0}{2}{2/2}{}{0}}}
\@writefile{nav}{\headcommand {\beamer@framepages {2}{2}}}
\@writefile{toc}{\beamer@sectionintoc {1}{Grundlagen}{3}{0}{1}}
\@writefile{nav}{\headcommand {\beamer@sectionpages {1}{2}}}
\@writefile{nav}{\headcommand {\beamer@subsectionpages {1}{2}}}
\@writefile{nav}{\headcommand {\sectionentry {1}{Grundlagen}{3}{Grundlagen}{0}}}
\@writefile{nav}{\headcommand {\slideentry {1}{0}{1}{3/3}{}{0}}}
\@writefile{nav}{\headcommand {\beamer@framepages {3}{3}}}
\@writefile{nav}{\headcommand {\slideentry {1}{0}{2}{4/4}{}{0}}}
\@writefile{nav}{\headcommand {\beamer@framepages {4}{4}}}
\@writefile{nav}{\headcommand {\slideentry {1}{0}{3}{5/5}{}{0}}}
\@writefile{nav}{\headcommand {\beamer@framepages {5}{5}}}
\@writefile{nav}{\headcommand {\slideentry {1}{0}{4}{6/6}{}{0}}}
\@writefile{nav}{\headcommand {\beamer@framepages {6}{6}}}
\@writefile{nav}{\headcommand {\slideentry {1}{0}{5}{7/7}{}{0}}}
\@writefile{nav}{\headcommand {\beamer@framepages {7}{7}}}
\@writefile{nav}{\headcommand {\slideentry {1}{0}{6}{8/8}{}{0}}}
\@writefile{nav}{\headcommand {\beamer@framepages {8}{8}}}
\@writefile{nav}{\headcommand {\slideentry {1}{0}{7}{9/9}{}{0}}}
\@writefile{nav}{\headcommand {\beamer@framepages {9}{9}}}
\@writefile{toc}{\beamer@sectionintoc {2}{Methodik}{10}{0}{2}}
\@writefile{nav}{\headcommand {\beamer@sectionpages {3}{9}}}
\@writefile{nav}{\headcommand {\beamer@subsectionpages {3}{9}}}
\@writefile{nav}{\headcommand {\sectionentry {2}{Methodik}{10}{Methodik}{0}}}
\@writefile{nav}{\headcommand {\slideentry {2}{0}{1}{10/10}{}{0}}}
\@writefile{nav}{\headcommand {\beamer@framepages {10}{10}}}
\@writefile{toc}{\beamer@subsectionintoc {2}{1}{Ketten}{11}{0}{2}}
\@writefile{nav}{\headcommand {\beamer@subsectionpages {10}{10}}}
\@writefile{nav}{\headcommand {\beamer@subsectionentry {0}{2}{1}{11}{Ketten}}}
\@writefile{nav}{\headcommand {\slideentry {2}{1}{1}{11/11}{Ketten}{0}}}
\@writefile{nav}{\headcommand {\beamer@framepages {11}{11}}}
\@writefile{nav}{\headcommand {\slideentry {2}{1}{2}{12/12}{Ketten}{0}}}
\@writefile{nav}{\headcommand {\beamer@framepages {12}{12}}}
\@writefile{nav}{\headcommand {\slideentry {2}{1}{3}{13/13}{Ketten}{0}}}
\@writefile{nav}{\headcommand {\beamer@framepages {13}{13}}}
\@writefile{nav}{\headcommand {\slideentry {2}{1}{4}{14/14}{Ketten}{0}}}
\@writefile{nav}{\headcommand {\beamer@framepages {14}{14}}}
\@writefile{nav}{\headcommand {\slideentry {2}{1}{5}{15/15}{Ketten}{0}}}
\@writefile{nav}{\headcommand {\beamer@framepages {15}{15}}}
\@writefile{nav}{\headcommand {\slideentry {2}{1}{6}{16/16}{Ketten}{0}}}
\@writefile{nav}{\headcommand {\beamer@framepages {16}{16}}}
\@writefile{nav}{\headcommand {\slideentry {2}{1}{7}{17/17}{Ketten}{0}}}
\@writefile{nav}{\headcommand {\beamer@framepages {17}{17}}}
\@writefile{nav}{\headcommand {\slideentry {2}{1}{8}{18/18}{Ketten}{0}}}
\@writefile{nav}{\headcommand {\beamer@framepages {18}{18}}}
\@writefile{nav}{\headcommand {\slideentry {2}{1}{9}{19/19}{Ketten}{0}}}
\@writefile{nav}{\headcommand {\beamer@framepages {19}{19}}}
\@writefile{nav}{\headcommand {\slideentry {2}{1}{10}{20/20}{Ketten}{0}}}
\@writefile{nav}{\headcommand {\beamer@framepages {20}{20}}}
\@writefile{nav}{\headcommand {\slideentry {2}{1}{11}{21/21}{Ketten}{0}}}
\@writefile{nav}{\headcommand {\beamer@framepages {21}{21}}}
\@writefile{nav}{\headcommand {\slideentry {2}{1}{12}{22/22}{Ketten}{0}}}
\@writefile{nav}{\headcommand {\beamer@framepages {22}{22}}}
\@writefile{nav}{\headcommand {\slideentry {2}{1}{13}{23/23}{Ketten}{0}}}
\@writefile{nav}{\headcommand {\beamer@framepages {23}{23}}}
\@writefile{nav}{\headcommand {\slideentry {2}{1}{14}{24/24}{Ketten}{0}}}
\@writefile{nav}{\headcommand {\beamer@framepages {24}{24}}}
\@writefile{nav}{\headcommand {\slideentry {2}{1}{15}{25/25}{Ketten}{0}}}
\@writefile{nav}{\headcommand {\beamer@framepages {25}{25}}}
\@writefile{nav}{\headcommand {\slideentry {2}{1}{16}{26/26}{Ketten}{0}}}
\@writefile{nav}{\headcommand {\beamer@framepages {26}{26}}}
\@writefile{toc}{\beamer@subsectionintoc {2}{2}{Gap Penalties}{27}{0}{2}}
\@writefile{nav}{\headcommand {\beamer@subsectionpages {11}{26}}}
\@writefile{nav}{\headcommand {\beamer@subsectionentry {0}{2}{2}{27}{Gap Penalties}}}
\@writefile{nav}{\headcommand {\slideentry {2}{2}{1}{27/27}{Gap Penalties}{0}}}
\@writefile{nav}{\headcommand {\beamer@framepages {27}{27}}}
\@writefile{nav}{\headcommand {\slideentry {2}{2}{2}{28/28}{Gap Penalties}{0}}}
\@writefile{nav}{\headcommand {\beamer@framepages {28}{28}}}
\@writefile{nav}{\headcommand {\slideentry {2}{2}{3}{29/29}{Gap Penalties}{0}}}
\@writefile{nav}{\headcommand {\beamer@framepages {29}{29}}}
\@writefile{nav}{\headcommand {\slideentry {2}{2}{4}{30/30}{Gap Penalties}{0}}}
\@writefile{nav}{\headcommand {\beamer@framepages {30}{30}}}
\@writefile{nav}{\headcommand {\slideentry {2}{2}{5}{31/31}{Gap Penalties}{0}}}
\@writefile{nav}{\headcommand {\beamer@framepages {31}{31}}}
\@writefile{nav}{\headcommand {\slideentry {2}{2}{6}{32/32}{Gap Penalties}{0}}}
\@writefile{nav}{\headcommand {\beamer@framepages {32}{32}}}
\@writefile{nav}{\headcommand {\slideentry {2}{2}{7}{33/33}{Gap Penalties}{0}}}
\@writefile{nav}{\headcommand {\beamer@framepages {33}{33}}}
\@writefile{nav}{\headcommand {\slideentry {2}{2}{8}{34/34}{Gap Penalties}{0}}}
\@writefile{nav}{\headcommand {\beamer@framepages {34}{34}}}
\@writefile{nav}{\headcommand {\slideentry {2}{2}{9}{35/35}{Gap Penalties}{0}}}
\@writefile{nav}{\headcommand {\beamer@framepages {35}{35}}}
\@writefile{nav}{\headcommand {\slideentry {2}{2}{10}{36/36}{Gap Penalties}{0}}}
\@writefile{nav}{\headcommand {\beamer@framepages {36}{36}}}
\@writefile{nav}{\headcommand {\slideentry {2}{2}{11}{37/37}{Gap Penalties}{0}}}
\@writefile{nav}{\headcommand {\beamer@framepages {37}{37}}}
\@writefile{toc}{\beamer@subsectionintoc {2}{3}{Suzuki Kasahara Formulation}{38}{0}{2}}
\@writefile{nav}{\headcommand {\beamer@subsectionpages {27}{37}}}
\@writefile{nav}{\headcommand {\beamer@subsectionentry {0}{2}{3}{38}{Suzuki Kasahara Formulation}}}
\@writefile{nav}{\headcommand {\slideentry {2}{3}{1}{38/38}{Suzuki Kasahara Formulation}{0}}}
\@writefile{nav}{\headcommand {\beamer@framepages {38}{38}}}
\@writefile{nav}{\headcommand {\slideentry {2}{3}{2}{39/39}{Suzuki Kasahara Formulation}{0}}}
\@writefile{nav}{\headcommand {\beamer@framepages {39}{39}}}
\@writefile{nav}{\headcommand {\slideentry {2}{3}{3}{40/40}{Suzuki Kasahara Formulation}{0}}}
\@writefile{nav}{\headcommand {\beamer@framepages {40}{40}}}
\@writefile{nav}{\headcommand {\slideentry {2}{3}{4}{41/41}{Suzuki Kasahara Formulation}{0}}}
\@writefile{nav}{\headcommand {\beamer@framepages {41}{41}}}
\@writefile{nav}{\headcommand {\slideentry {2}{3}{5}{42/42}{Suzuki Kasahara Formulation}{0}}}
\@writefile{nav}{\headcommand {\beamer@framepages {42}{42}}}
\@writefile{toc}{\beamer@subsectionintoc {2}{4}{Banded Dynamic Programming}{43}{0}{2}}
\@writefile{nav}{\headcommand {\beamer@subsectionpages {38}{42}}}
\@writefile{nav}{\headcommand {\beamer@subsectionentry {0}{2}{4}{43}{Banded Dynamic Programming}}}
\@writefile{nav}{\headcommand {\slideentry {2}{4}{1}{43/43}{Banded Dynamic Programming}{0}}}
\@writefile{nav}{\headcommand {\beamer@framepages {43}{43}}}
\@writefile{nav}{\headcommand {\slideentry {2}{4}{2}{44/44}{Banded Dynamic Programming}{0}}}
\@writefile{nav}{\headcommand {\beamer@framepages {44}{44}}}
\@writefile{nav}{\headcommand {\slideentry {2}{4}{3}{45/45}{Banded Dynamic Programming}{0}}}
\@writefile{nav}{\headcommand {\beamer@framepages {45}{45}}}
\@writefile{nav}{\headcommand {\slideentry {2}{4}{4}{46/46}{Banded Dynamic Programming}{0}}}
\@writefile{nav}{\headcommand {\beamer@framepages {46}{46}}}
\@writefile{nav}{\headcommand {\slideentry {2}{4}{5}{47/47}{Banded Dynamic Programming}{0}}}
\@writefile{nav}{\headcommand {\beamer@framepages {47}{47}}}
\@writefile{nav}{\headcommand {\slideentry {2}{4}{6}{48/48}{Banded Dynamic Programming}{0}}}
\@writefile{nav}{\headcommand {\beamer@framepages {48}{48}}}
\@writefile{toc}{\beamer@subsectionintoc {2}{5}{Heuristiken}{49}{0}{2}}
\@writefile{nav}{\headcommand {\beamer@subsectionpages {43}{48}}}
\@writefile{nav}{\headcommand {\beamer@subsectionentry {0}{2}{5}{49}{Heuristiken}}}
\@writefile{nav}{\headcommand {\slideentry {2}{5}{1}{49/49}{Heuristiken}{0}}}
\@writefile{nav}{\headcommand {\beamer@framepages {49}{49}}}
\@writefile{nav}{\headcommand {\slideentry {2}{5}{2}{50/50}{Heuristiken}{0}}}
\@writefile{nav}{\headcommand {\beamer@framepages {50}{50}}}
\@writefile{nav}{\headcommand {\slideentry {2}{5}{3}{51/51}{Heuristiken}{0}}}
\@writefile{nav}{\headcommand {\beamer@framepages {51}{51}}}
\@writefile{nav}{\headcommand {\slideentry {2}{5}{4}{52/52}{Heuristiken}{0}}}
\@writefile{nav}{\headcommand {\beamer@framepages {52}{52}}}
\@writefile{nav}{\headcommand {\slideentry {2}{5}{5}{53/53}{Heuristiken}{0}}}
\@writefile{nav}{\headcommand {\beamer@framepages {53}{53}}}
\@writefile{nav}{\headcommand {\slideentry {2}{5}{6}{54/54}{Heuristiken}{0}}}
\@writefile{nav}{\headcommand {\beamer@framepages {54}{54}}}
\@writefile{toc}{\beamer@sectionintoc {3}{Ergebnisse}{55}{0}{3}}
\@writefile{nav}{\headcommand {\beamer@sectionpages {10}{54}}}
\@writefile{nav}{\headcommand {\beamer@subsectionpages {49}{54}}}
\@writefile{nav}{\headcommand {\sectionentry {3}{Ergebnisse}{55}{Ergebnisse}{0}}}
\@writefile{nav}{\headcommand {\slideentry {3}{0}{1}{55/55}{}{0}}}
\@writefile{nav}{\headcommand {\beamer@framepages {55}{55}}}
\@writefile{nav}{\headcommand {\slideentry {3}{0}{2}{56/56}{}{0}}}
\@writefile{nav}{\headcommand {\beamer@framepages {56}{56}}}
\@writefile{nav}{\headcommand {\slideentry {3}{0}{3}{57/57}{}{0}}}
\@writefile{nav}{\headcommand {\beamer@framepages {57}{57}}}
\@writefile{nav}{\headcommand {\slideentry {3}{0}{4}{58/58}{}{0}}}
\@writefile{nav}{\headcommand {\beamer@framepages {58}{58}}}
\@writefile{nav}{\headcommand {\slideentry {3}{0}{5}{59/59}{}{0}}}
\@writefile{nav}{\headcommand {\beamer@framepages {59}{59}}}
\@writefile{nav}{\headcommand {\slideentry {3}{0}{6}{60/60}{}{0}}}
\@writefile{nav}{\headcommand {\beamer@framepages {60}{60}}}
\@writefile{nav}{\headcommand {\slideentry {3}{0}{7}{61/61}{}{0}}}
\@writefile{nav}{\headcommand {\beamer@framepages {61}{61}}}
\@writefile{nav}{\headcommand {\slideentry {3}{0}{8}{62/62}{}{0}}}
\@writefile{nav}{\headcommand {\beamer@framepages {62}{62}}}
\@writefile{nav}{\headcommand {\beamer@partpages {1}{62}}}
\@writefile{nav}{\headcommand {\beamer@subsectionpages {55}{62}}}
\@writefile{nav}{\headcommand {\beamer@sectionpages {55}{62}}}
\@writefile{nav}{\headcommand {\beamer@documentpages {62}}}
\@writefile{nav}{\headcommand {\gdef \inserttotalframenumber {62}}}
