# Fdb version 3
["pdflatex"] 1562794968 "/Users/florian/Desktop/Minimap 2 Präsentation/index.tex" "/Users/florian/Desktop/Minimap 2 Präsentation/index.pdf" "index" 1562794972
  "/Users/florian/Desktop/Minimap 2 Präsentation/index.aux" 1562794971 11503 cbc5fbfb0f8ea2132cc51f1c15e489c1 ""
  "/Users/florian/Desktop/Minimap 2 Präsentation/index.tex" 1562794967 32196 a0d47db86acb2aaf80a7c55c655f3027 ""
  "/usr/local/texlive/2018/texmf-dist/fonts/enc/dvips/lm/lm-ec.enc" 1480098668 2375 baa924870cfb487815765f9094cf3728 ""
  "/usr/local/texlive/2018/texmf-dist/fonts/enc/dvips/lm/lm-mathex.enc" 1480098668 3486 c7eadf5dcc57b3b2d11736679f6636ba ""
  "/usr/local/texlive/2018/texmf-dist/fonts/enc/dvips/lm/lm-mathit.enc" 1480098668 2405 5dcf2c1b967ee25cc46c58cd52244aed ""
  "/usr/local/texlive/2018/texmf-dist/fonts/enc/dvips/lm/lm-mathsy.enc" 1480098668 2840 216e6e45ad352e2456e1149f28885bee ""
  "/usr/local/texlive/2018/texmf-dist/fonts/enc/dvips/lm/lm-rm.enc" 1480098668 2327 9d6df24f9c4f7368395224341a95523a ""
  "/usr/local/texlive/2018/texmf-dist/fonts/map/fontname/texfonts.map" 1511824771 3332 103109f5612ad95229751940c61aada0 ""
  "/usr/local/texlive/2018/texmf-dist/fonts/tfm/jknappen/ec/ecss1095.tfm" 1480098696 3584 8ece407347b270c252c46fdfaef5a9ef ""
  "/usr/local/texlive/2018/texmf-dist/fonts/tfm/public/amsfonts/symbols/msam10.tfm" 1480098698 916 f87d7c45f9c908e672703b83b72241a3 ""
  "/usr/local/texlive/2018/texmf-dist/fonts/tfm/public/amsfonts/symbols/msam5.tfm" 1480098698 924 9904cf1d39e9767e7a3622f2a125a565 ""
  "/usr/local/texlive/2018/texmf-dist/fonts/tfm/public/amsfonts/symbols/msam7.tfm" 1480098698 928 2dc8d444221b7a635bb58038579b861a ""
  "/usr/local/texlive/2018/texmf-dist/fonts/tfm/public/amsfonts/symbols/msbm10.tfm" 1480098698 908 2921f8a10601f252058503cc6570e581 ""
  "/usr/local/texlive/2018/texmf-dist/fonts/tfm/public/amsfonts/symbols/msbm5.tfm" 1480098698 940 75ac932a52f80982a9f8ea75d03a34cf ""
  "/usr/local/texlive/2018/texmf-dist/fonts/tfm/public/amsfonts/symbols/msbm7.tfm" 1480098698 940 228d6584342e91276bf566bcf9716b83 ""
  "/usr/local/texlive/2018/texmf-dist/fonts/tfm/public/cm/cmr10.tfm" 1480098701 1296 45809c5a464d5f32c8f98ba97c1bb47f ""
  "/usr/local/texlive/2018/texmf-dist/fonts/tfm/public/cm/cmss10.tfm" 1480098701 1316 b636689f1933f24d1294acdf6041daaa ""
  "/usr/local/texlive/2018/texmf-dist/fonts/tfm/public/lm/ec-lmss10.tfm" 1480098712 11176 53ebf7a171df1f9447b387b178768bb5 ""
  "/usr/local/texlive/2018/texmf-dist/fonts/tfm/public/lm/ec-lmss12.tfm" 1480098712 11232 955a7245396175d9219648eadc654ac9 ""
  "/usr/local/texlive/2018/texmf-dist/fonts/tfm/public/lm/ec-lmss17.tfm" 1480098712 11252 57c8b53a3aeebba8c17658d4221d47ec ""
  "/usr/local/texlive/2018/texmf-dist/fonts/tfm/public/lm/ec-lmss8.tfm" 1480098712 11180 705632ac6b4fb69204ad970192cdf4e5 ""
  "/usr/local/texlive/2018/texmf-dist/fonts/tfm/public/lm/ec-lmsso10.tfm" 1480098712 11316 701b7748a8cc1abea04b4bcc027674ae ""
  "/usr/local/texlive/2018/texmf-dist/fonts/tfm/public/lm/ec-lmsso8.tfm" 1480098712 11312 6908420b41cb9ad797e206f7391721ea ""
  "/usr/local/texlive/2018/texmf-dist/fonts/tfm/public/lm/lmex10.tfm" 1480098712 992 ce925c9346c7613270a79afbee98c070 ""
  "/usr/local/texlive/2018/texmf-dist/fonts/tfm/public/lm/lmmi10.tfm" 1480098712 1528 6d36b2385e0ca062a654de6ac59cb34f ""
  "/usr/local/texlive/2018/texmf-dist/fonts/tfm/public/lm/lmmi5.tfm" 1480098712 1508 198f5b7b99b5769126de3a533f6fc334 ""
  "/usr/local/texlive/2018/texmf-dist/fonts/tfm/public/lm/lmmi6.tfm" 1480098712 1512 94a3fd88c6f27dbd9ecb46987e297a4e ""
  "/usr/local/texlive/2018/texmf-dist/fonts/tfm/public/lm/lmmi7.tfm" 1480098712 1528 d5b028dd23da623848ef0645c96a1ed7 ""
  "/usr/local/texlive/2018/texmf-dist/fonts/tfm/public/lm/lmmi8.tfm" 1480098712 1520 a3fe5596932db2db2cbda300920dd4e9 ""
  "/usr/local/texlive/2018/texmf-dist/fonts/tfm/public/lm/lmsy10.tfm" 1480098712 1308 02cc510f9dd6012e5815d0c0ffbf6869 ""
  "/usr/local/texlive/2018/texmf-dist/fonts/tfm/public/lm/lmsy5.tfm" 1480098712 1296 54ed1a711e2303d5282575278e3620b0 ""
  "/usr/local/texlive/2018/texmf-dist/fonts/tfm/public/lm/lmsy6.tfm" 1480098712 1300 b0605d44c16c22d99dc001808e4f24ea ""
  "/usr/local/texlive/2018/texmf-dist/fonts/tfm/public/lm/lmsy7.tfm" 1480098712 1304 32f22a15acc296b2a4e15698403dcb88 ""
  "/usr/local/texlive/2018/texmf-dist/fonts/tfm/public/lm/lmsy8.tfm" 1480098712 1304 cdc9a17df9ef0d2dc320eff37bbab1c4 ""
  "/usr/local/texlive/2018/texmf-dist/fonts/tfm/public/lm/rm-lmss10.tfm" 1480098712 10976 59d4d2acacc56ba9abc92645023932ec ""
  "/usr/local/texlive/2018/texmf-dist/fonts/tfm/public/lm/rm-lmss8.tfm" 1480098712 10976 d5243dcaf5ba5ee7825c8438c6b7a7ea ""
  "/usr/local/texlive/2018/texmf-dist/fonts/type1/public/amsfonts/symbols/msam10.pfb" 1480098733 31764 459c573c03a4949a528c2cc7f557e217 ""
  "/usr/local/texlive/2018/texmf-dist/fonts/type1/public/lm/lmex10.pfb" 1480098742 23055 2e5b42921de910eaa97b85df04ca4891 ""
  "/usr/local/texlive/2018/texmf-dist/fonts/type1/public/lm/lmmi10.pfb" 1480098742 30388 702fae6a5f0e6e9c48a1d872b442ffcf ""
  "/usr/local/texlive/2018/texmf-dist/fonts/type1/public/lm/lmmi8.pfb" 1480098742 30635 833ec815d446ec453a4913fc26d24cbc ""
  "/usr/local/texlive/2018/texmf-dist/fonts/type1/public/lm/lmss10.pfb" 1480098742 97408 f595704ec2a07246c2d6f7b602587452 ""
  "/usr/local/texlive/2018/texmf-dist/fonts/type1/public/lm/lmss12.pfb" 1480098742 96107 daf52840b555e3b38f9679b629b5e2df ""
  "/usr/local/texlive/2018/texmf-dist/fonts/type1/public/lm/lmss17.pfb" 1480098742 97155 77b0a2ea02ee9c950117adae5f41f9c9 ""
  "/usr/local/texlive/2018/texmf-dist/fonts/type1/public/lm/lmss8.pfb" 1480098742 94400 e33ecfb646a9f148e2e53da01a9168fe ""
  "/usr/local/texlive/2018/texmf-dist/fonts/type1/public/lm/lmsso10.pfb" 1480098742 108953 1f7b36ba493bc956ac3c5eab8852ab76 ""
  "/usr/local/texlive/2018/texmf-dist/fonts/type1/public/lm/lmsso8.pfb" 1480098742 106860 a773e4958b589eadcc5b01a914624508 ""
  "/usr/local/texlive/2018/texmf-dist/fonts/type1/public/lm/lmsy10.pfb" 1480098742 27863 09ce3735688ffde955e72da27c95b61a ""
  "/usr/local/texlive/2018/texmf-dist/fonts/type1/public/lm/lmsy8.pfb" 1480098742 27802 5c876bb2c4040caaf035d60bd74a86bd ""
  "/usr/local/texlive/2018/texmf-dist/tex/context/base/mkii/supp-pdf.mkii" 1480098806 71627 94eb9990bed73c364d7f53f960cc8c5b ""
  "/usr/local/texlive/2018/texmf-dist/tex/generic/babel-german/ngerman.ldf" 1522444581 2164 bdfa568c4c335949b9158124b5e46ea4 ""
  "/usr/local/texlive/2018/texmf-dist/tex/generic/babel-german/ngermanb.ldf" 1522444581 7556 5ff33c3f39447b0929deaef97fb3723c ""
  "/usr/local/texlive/2018/texmf-dist/tex/generic/babel/babel.def" 1518644053 67244 2dce3d67c354c8d92f638d0f8682fb73 ""
  "/usr/local/texlive/2018/texmf-dist/tex/generic/babel/babel.sty" 1518644053 15861 065fe343082d0cd2428cf984d6b2ef66 ""
  "/usr/local/texlive/2018/texmf-dist/tex/generic/babel/switch.def" 1518644053 12523 d80bc74bf5e02fe4304443a6de8d01be ""
  "/usr/local/texlive/2018/texmf-dist/tex/generic/babel/txtbabel.def" 1518644053 7434 1b3955075683beb1c883a0fcf92ed2d5 ""
  "/usr/local/texlive/2018/texmf-dist/tex/generic/ifxetex/ifxetex.sty" 1480098815 1458 43ab4710dc82f3edeabecd0d099626b2 ""
  "/usr/local/texlive/2018/texmf-dist/tex/generic/oberdiek/atbegshi.sty" 1480098815 24580 144573175d90c8e36676f97ae1d11ec2 ""
  "/usr/local/texlive/2018/texmf-dist/tex/generic/oberdiek/gettitlestring.sty" 1480098815 8237 3b62ef1f7e2c23a328c814b3893bc11f ""
  "/usr/local/texlive/2018/texmf-dist/tex/generic/oberdiek/hobsub-generic.sty" 1522444781 185313 3e16abd014cb2c328020e45d63ed7f45 ""
  "/usr/local/texlive/2018/texmf-dist/tex/generic/oberdiek/hobsub-hyperref.sty" 1480098815 70864 bcd5b216757bd619ae692a151d90085d ""
  "/usr/local/texlive/2018/texmf-dist/tex/generic/oberdiek/ifpdf.sty" 1490564930 1251 d170e11a3246c3392bc7f59595af42cb ""
  "/usr/local/texlive/2018/texmf-dist/tex/generic/oberdiek/ifvtex.sty" 1480098815 6797 90b7f83b0ad46826bc16058b1e3d48df ""
  "/usr/local/texlive/2018/texmf-dist/tex/generic/oberdiek/infwarerr.sty" 1480098815 8253 473e0e41f9adadb1977e8631b8f72ea6 ""
  "/usr/local/texlive/2018/texmf-dist/tex/generic/oberdiek/ltxcmds.sty" 1480098815 18425 5b3c0c59d76fac78978b5558e83c1f36 ""
  "/usr/local/texlive/2018/texmf-dist/tex/generic/pgf/basiclayer/pgfcore.code.tex" 1480098816 1006 b103be0bfc8c1682ff1fa9760697a329 ""
  "/usr/local/texlive/2018/texmf-dist/tex/generic/pgf/basiclayer/pgfcorearrows.code.tex" 1480098816 43226 167a99346bfe2676e3efcdde2d81fe45 ""
  "/usr/local/texlive/2018/texmf-dist/tex/generic/pgf/basiclayer/pgfcoreexternal.code.tex" 1480098816 19302 4f089dc590e71f7331e6d5b5ea85273b ""
  "/usr/local/texlive/2018/texmf-dist/tex/generic/pgf/basiclayer/pgfcoregraphicstate.code.tex" 1480098816 6068 edae1e768a7d8d8f0f00e953d2b0153e ""
  "/usr/local/texlive/2018/texmf-dist/tex/generic/pgf/basiclayer/pgfcoreimage.code.tex" 1480098816 7041 a891ad72049e17c4e366c40ca37b0ccb ""
  "/usr/local/texlive/2018/texmf-dist/tex/generic/pgf/basiclayer/pgfcorelayers.code.tex" 1480098816 4625 40c07e9f6f2f7c674704b3f2055560ce ""
  "/usr/local/texlive/2018/texmf-dist/tex/generic/pgf/basiclayer/pgfcoreobjects.code.tex" 1480098816 2631 7eefa6cdbefd8d4e2bad7262cf1094cd ""
  "/usr/local/texlive/2018/texmf-dist/tex/generic/pgf/basiclayer/pgfcorepathconstruct.code.tex" 1480098816 43477 81143b33d9ebafdeead07ede13372427 ""
  "/usr/local/texlive/2018/texmf-dist/tex/generic/pgf/basiclayer/pgfcorepathprocessing.code.tex" 1480098816 17436 8d99d4113be311daf23deff86991ee7d ""
  "/usr/local/texlive/2018/texmf-dist/tex/generic/pgf/basiclayer/pgfcorepathusage.code.tex" 1480098816 20772 c57e34db4aa7b1da013169d04b743eac ""
  "/usr/local/texlive/2018/texmf-dist/tex/generic/pgf/basiclayer/pgfcorepatterns.code.tex" 1480098816 9641 711f0edc22c180a5caf168b6e8970057 ""
  "/usr/local/texlive/2018/texmf-dist/tex/generic/pgf/basiclayer/pgfcorepoints.code.tex" 1480098816 34516 658a71478d21df554bce9d9cd436203a ""
  "/usr/local/texlive/2018/texmf-dist/tex/generic/pgf/basiclayer/pgfcorequick.code.tex" 1480098816 3052 e5672c657232fd63b0a9853b0746297c ""
  "/usr/local/texlive/2018/texmf-dist/tex/generic/pgf/basiclayer/pgfcorescopes.code.tex" 1480098816 16669 4ec6e40088fc6de6334b443fe2dc59f0 ""
  "/usr/local/texlive/2018/texmf-dist/tex/generic/pgf/basiclayer/pgfcoreshade.code.tex" 1480098816 21541 4cd19f8ff7dd74d5aa7d803a6397af84 ""
  "/usr/local/texlive/2018/texmf-dist/tex/generic/pgf/basiclayer/pgfcoretransformations.code.tex" 1480098816 19998 d77fef95c7369827753d17fd11be19c4 ""
  "/usr/local/texlive/2018/texmf-dist/tex/generic/pgf/basiclayer/pgfcoretransparency.code.tex" 1480098816 8943 2e2495b057f8f0035b5568394d489963 ""
  "/usr/local/texlive/2018/texmf-dist/tex/generic/pgf/math/pgfmath.code.tex" 1480098816 454 9e9e7c99f4da4f41698be21eaef4938e ""
  "/usr/local/texlive/2018/texmf-dist/tex/generic/pgf/math/pgfmathcalc.code.tex" 1480098816 13416 940ea6971d7a65dc440d3479939c66ae ""
  "/usr/local/texlive/2018/texmf-dist/tex/generic/pgf/math/pgfmathfloat.code.tex" 1480098816 94097 62ac62cda46eb715560dc27f9ed6e8b1 ""
  "/usr/local/texlive/2018/texmf-dist/tex/generic/pgf/math/pgfmathfunctions.base.code.tex" 1480098816 9375 5adc70f722abd29fc250d59e0694b548 ""
  "/usr/local/texlive/2018/texmf-dist/tex/generic/pgf/math/pgfmathfunctions.basic.code.tex" 1480098816 22069 7c21c42b15718ce922f36235be360490 ""
  "/usr/local/texlive/2018/texmf-dist/tex/generic/pgf/math/pgfmathfunctions.code.tex" 1480098816 8210 a7be5b52ef3d2c087b7dc3d52898b67e ""
  "/usr/local/texlive/2018/texmf-dist/tex/generic/pgf/math/pgfmathfunctions.comparison.code.tex" 1480098816 3534 c7f28fbac13616513e513efe93b8569b ""
  "/usr/local/texlive/2018/texmf-dist/tex/generic/pgf/math/pgfmathfunctions.integerarithmetics.code.tex" 1480098816 3167 7c9394e79aac27db96a92f9b2792b858 ""
  "/usr/local/texlive/2018/texmf-dist/tex/generic/pgf/math/pgfmathfunctions.misc.code.tex" 1480098816 9289 261407875b9dbb0194691c3eb893610f ""
  "/usr/local/texlive/2018/texmf-dist/tex/generic/pgf/math/pgfmathfunctions.random.code.tex" 1480098816 7078 946ddf4a7e57219b6afdbad98eb6731b ""
  "/usr/local/texlive/2018/texmf-dist/tex/generic/pgf/math/pgfmathfunctions.round.code.tex" 1480098816 2688 139c6abc86761a6190c2f4bef5d752be ""
  "/usr/local/texlive/2018/texmf-dist/tex/generic/pgf/math/pgfmathfunctions.trigonometric.code.tex" 1480098816 92284 dcf023dbaa84e6c50e11c2f79fe8cfa6 ""
  "/usr/local/texlive/2018/texmf-dist/tex/generic/pgf/math/pgfmathparser.code.tex" 1480098816 35430 046e15fbb65e74d8f0e7945f99741fdb ""
  "/usr/local/texlive/2018/texmf-dist/tex/generic/pgf/math/pgfmathutil.code.tex" 1480098816 7099 f44d505bae6c7c2b933cdd63441db4b9 ""
  "/usr/local/texlive/2018/texmf-dist/tex/generic/pgf/systemlayer/pgf.cfg" 1480098816 978 15af626ebd3d4d790aac19170dac04f2 ""
  "/usr/local/texlive/2018/texmf-dist/tex/generic/pgf/systemlayer/pgfsys-common-pdf.def" 1480098816 5437 d91f93ed61ecdc57e119849b2d784a0b ""
  "/usr/local/texlive/2018/texmf-dist/tex/generic/pgf/systemlayer/pgfsys-pdftex.def" 1480098816 13507 809d848d9262638e1b1705a68a73c566 ""
  "/usr/local/texlive/2018/texmf-dist/tex/generic/pgf/systemlayer/pgfsys.code.tex" 1480098816 35113 2ccc50c1c9573e4bac9230d030f9c67c ""
  "/usr/local/texlive/2018/texmf-dist/tex/generic/pgf/systemlayer/pgfsysprotocol.code.tex" 1480098816 1983 b5994ebbcee17f1ba3d29bb1bd696fcf ""
  "/usr/local/texlive/2018/texmf-dist/tex/generic/pgf/systemlayer/pgfsyssoftpath.code.tex" 1480098816 7881 d459d6057e13d10ce7a227ae44b7295e ""
  "/usr/local/texlive/2018/texmf-dist/tex/generic/pgf/utilities/pgfkeys.code.tex" 1480098816 36194 e194ef4e0b396b531a3891feb4b1cc22 ""
  "/usr/local/texlive/2018/texmf-dist/tex/generic/pgf/utilities/pgfkeysfiltered.code.tex" 1480098816 33377 af391d6ad1bfcbe2278e191f48e43ba8 ""
  "/usr/local/texlive/2018/texmf-dist/tex/generic/pgf/utilities/pgfrcs.code.tex" 1480098816 2536 a3b0529d815a2759ba157b56610a6377 ""
  "/usr/local/texlive/2018/texmf-dist/tex/generic/pgf/utilities/pgfutil-common-lists.tex" 1480098816 6833 114eda2cf1d348e0e7e477a1a4dc1941 ""
  "/usr/local/texlive/2018/texmf-dist/tex/generic/pgf/utilities/pgfutil-common.tex" 1480098816 16501 ab0135765e27b6b8dae047831fe84818 ""
  "/usr/local/texlive/2018/texmf-dist/tex/generic/pgf/utilities/pgfutil-latex.def" 1480098816 5544 294baac9629ba59f675b1f2027ad7136 ""
  "/usr/local/texlive/2018/texmf-dist/tex/latex/amscls/amsthm.sty" 1513722769 12604 3dec726c041422879dc3268237f09026 ""
  "/usr/local/texlive/2018/texmf-dist/tex/latex/amsfonts/amsfonts.sty" 1480098820 5949 3f3fd50a8cc94c3d4cbf4fc66cd3df1c ""
  "/usr/local/texlive/2018/texmf-dist/tex/latex/amsfonts/amssymb.sty" 1480098820 13829 94730e64147574077f8ecfea9bb69af4 ""
  "/usr/local/texlive/2018/texmf-dist/tex/latex/amsfonts/umsa.fd" 1480098820 961 6518c6525a34feb5e8250ffa91731cff ""
  "/usr/local/texlive/2018/texmf-dist/tex/latex/amsfonts/umsb.fd" 1480098820 961 d02606146ba5601b5645f987c92e6193 ""
  "/usr/local/texlive/2018/texmf-dist/tex/latex/amsmath/amsbsy.sty" 1523134290 2211 ca7ce284ab93c8eecdc6029dc5ccbd73 ""
  "/usr/local/texlive/2018/texmf-dist/tex/latex/amsmath/amsgen.sty" 1523134290 4161 7f6eb9092061a11f87d08ed13515b48d ""
  "/usr/local/texlive/2018/texmf-dist/tex/latex/amsmath/amsmath.sty" 1523134290 84354 7292177bb735c466b78634ee4efd537e ""
  "/usr/local/texlive/2018/texmf-dist/tex/latex/amsmath/amsopn.sty" 1523134290 4116 32e6abd27229755a83a8b7f18e583890 ""
  "/usr/local/texlive/2018/texmf-dist/tex/latex/amsmath/amstext.sty" 1523134290 2432 8ff93b1137020e8f21930562a874ae66 ""
  "/usr/local/texlive/2018/texmf-dist/tex/latex/base/fontenc.sty" 1523050425 4573 ae83473dfe6aea3508ab88d22c4457b2 ""
  "/usr/local/texlive/2018/texmf-dist/tex/latex/base/inputenc.sty" 1523050425 5052 f2525dfd6e503dc383e90b568c6c9f02 ""
  "/usr/local/texlive/2018/texmf-dist/tex/latex/base/size11.clo" 1523050425 8310 c914ded44e64c3c6e0ed92e7ac6a2004 ""
  "/usr/local/texlive/2018/texmf-dist/tex/latex/base/t1enc.def" 1523050425 10008 3208fbcdd7b3f5dd0dda02e6507bf38c ""
  "/usr/local/texlive/2018/texmf-dist/tex/latex/beamer/beamer.cls" 1519256047 11573 6ad13c4ed41dfa776135546b18cfbe1a ""
  "/usr/local/texlive/2018/texmf-dist/tex/latex/beamer/beamerbaseauxtemplates.sty" 1519256047 22666 933c376468a06913d7754fc13742473c ""
  "/usr/local/texlive/2018/texmf-dist/tex/latex/beamer/beamerbaseboxes.sty" 1483401677 8073 df5c1784673e960a504a7c1960c767d3 ""
  "/usr/local/texlive/2018/texmf-dist/tex/latex/beamer/beamerbasecolor.sty" 1519256047 13293 4e137a4941dec574b49585c13053f681 ""
  "/usr/local/texlive/2018/texmf-dist/tex/latex/beamer/beamerbasecompatibility.sty" 1519256047 24410 c4c8374860ec8dd144c9e52b9a4be8f6 ""
  "/usr/local/texlive/2018/texmf-dist/tex/latex/beamer/beamerbasedecode.sty" 1519256047 9223 3dcf2e3028325ba361c1b99d7205fc93 ""
  "/usr/local/texlive/2018/texmf-dist/tex/latex/beamer/beamerbasefont.sty" 1519256047 13464 29d78002042e084b82f7d34ed67391d9 ""
  "/usr/local/texlive/2018/texmf-dist/tex/latex/beamer/beamerbaseframe.sty" 1519256047 24785 78a2d764d246c48203b98fd9602a30cf ""
  "/usr/local/texlive/2018/texmf-dist/tex/latex/beamer/beamerbaseframecomponents.sty" 1519256047 11898 264f0ae03dbfa791611c1821393bc0b9 ""
  "/usr/local/texlive/2018/texmf-dist/tex/latex/beamer/beamerbaseframesize.sty" 1483401677 8724 3da64c74fd1533e88179d5635b7ae6fe ""
  "/usr/local/texlive/2018/texmf-dist/tex/latex/beamer/beamerbaselocalstructure.sty" 1519256047 16585 b2950fd7e085cc3b1afaf3170f3e21fc ""
  "/usr/local/texlive/2018/texmf-dist/tex/latex/beamer/beamerbasemisc.sty" 1519256047 8313 358d4bb860bd9098eb24099f36b27af1 ""
  "/usr/local/texlive/2018/texmf-dist/tex/latex/beamer/beamerbasemodes.sty" 1519256047 7493 bfb4c812c60867c1a9060a306fdd3434 ""
  "/usr/local/texlive/2018/texmf-dist/tex/latex/beamer/beamerbasenavigation.sty" 1519256047 29020 6cae2187b2d2bc4f39b6bb5bddbcf031 ""
  "/usr/local/texlive/2018/texmf-dist/tex/latex/beamer/beamerbasenotes.sty" 1519256047 5347 c13cef7a309d4719e32c79977ffb972f ""
  "/usr/local/texlive/2018/texmf-dist/tex/latex/beamer/beamerbaseoptions.sty" 1500070590 1753 c10ec1df45e4b4c7ee05e306d23f95d7 ""
  "/usr/local/texlive/2018/texmf-dist/tex/latex/beamer/beamerbaseoverlay.sty" 1519256047 27030 515a945e010680cce3b317f59eaaf081 ""
  "/usr/local/texlive/2018/texmf-dist/tex/latex/beamer/beamerbaserequires.sty" 1500070590 1593 48c3729494fa250d34789fd6af677f99 ""
  "/usr/local/texlive/2018/texmf-dist/tex/latex/beamer/beamerbasesection.sty" 1519256047 13467 0173b5c7addf3966d285337d930a310a ""
  "/usr/local/texlive/2018/texmf-dist/tex/latex/beamer/beamerbasetemplates.sty" 1500070590 5753 fbf8c2f7c7d6d5d1d2b900c353f094e8 ""
  "/usr/local/texlive/2018/texmf-dist/tex/latex/beamer/beamerbasethemes.sty" 1500070590 1140 cdaff8d445bd2a4e7afdec5190a758c0 ""
  "/usr/local/texlive/2018/texmf-dist/tex/latex/beamer/beamerbasetheorems.sty" 1500070590 4548 cdde9ae4b614ce5ea4cf7a232ceeb6a8 ""
  "/usr/local/texlive/2018/texmf-dist/tex/latex/beamer/beamerbasetitle.sty" 1519256047 5373 858be7ef52ed1687cd0388aded0480c3 ""
  "/usr/local/texlive/2018/texmf-dist/tex/latex/beamer/beamerbasetoc.sty" 1519256047 7494 ed91d358cf202c733488dccab65fec3b ""
  "/usr/local/texlive/2018/texmf-dist/tex/latex/beamer/beamerbasetranslator.sty" 1483401677 637 685bd3d40aca2fa87965a39bc31aca7f ""
  "/usr/local/texlive/2018/texmf-dist/tex/latex/beamer/beamerbasetwoscreens.sty" 1500070590 1408 93bead6e76a275002dbb9a319dc984d0 ""
  "/usr/local/texlive/2018/texmf-dist/tex/latex/beamer/beamerbaseverbatim.sty" 1519256047 4026 1ba2c6a2acf275d63cb85d60d8597fe8 ""
  "/usr/local/texlive/2018/texmf-dist/tex/latex/beamer/beamercolorthemedefault.sty" 1519256047 7113 9e704ecfdbef4fb8bd9e18751e4051a9 ""
  "/usr/local/texlive/2018/texmf-dist/tex/latex/beamer/beamercolorthemeorchid.sty" 1513642141 835 ac57517533d993c08f21ee9ac10445d7 ""
  "/usr/local/texlive/2018/texmf-dist/tex/latex/beamer/beamercolorthemewhale.sty" 1513642141 1013 bbd3a76e797308a780fd7196c973ec2e ""
  "/usr/local/texlive/2018/texmf-dist/tex/latex/beamer/beamerfontthemedefault.sty" 1519256047 4236 21e590075d6781cc58fee783316ee268 ""
  "/usr/local/texlive/2018/texmf-dist/tex/latex/beamer/beamericonarticle.20.pdf" 1513642141 2958 4e0c4a6e994e5c4d9da11c477e927f0f ""
  "/usr/local/texlive/2018/texmf-dist/tex/latex/beamer/beamericonarticle.pdf" 1513642141 2936 6cc3ef0682cbb62be8aa1b19f0a84ed6 ""
  "/usr/local/texlive/2018/texmf-dist/tex/latex/beamer/beamericonbook.20.pdf" 1513642141 2734 0bcf939051dd2a936cdfe5982f7c233b ""
  "/usr/local/texlive/2018/texmf-dist/tex/latex/beamer/beamericonbook.pdf" 1513642141 2667 7624351b441ffe4bd2d14e08fbcf063d ""
  "/usr/local/texlive/2018/texmf-dist/tex/latex/beamer/beamericononline.20.pdf" 1513642141 24451 195d2c060e84f339954bc6d9b52131d7 ""
  "/usr/local/texlive/2018/texmf-dist/tex/latex/beamer/beamericononline.pdf" 1513642141 24611 df07010540266b2b205b492a4d02e7e1 ""
  "/usr/local/texlive/2018/texmf-dist/tex/latex/beamer/beamerinnerthemedefault.sty" 1519256047 13031 a33a15e4b12bfa976c11f59131636ea9 ""
  "/usr/local/texlive/2018/texmf-dist/tex/latex/beamer/beamerinnerthemerectangles.sty" 1513642141 401 1ced509fadea50920c2c205d5990f03e ""
  "/usr/local/texlive/2018/texmf-dist/tex/latex/beamer/beamerouterthemedefault.sty" 1519256047 6584 a2b5a29622807666ab66e073d385a2b7 ""
  "/usr/local/texlive/2018/texmf-dist/tex/latex/beamer/beamerouterthemetree.sty" 1513642141 2024 edb345879bfc827cc7afa5eb98902437 ""
  "/usr/local/texlive/2018/texmf-dist/tex/latex/beamer/beamerthemeAntibes.sty" 1513642141 391 0aa3f3950e16a1cba504951933792e72 ""
  "/usr/local/texlive/2018/texmf-dist/tex/latex/beamer/beamerthemedefault.sty" 1513642141 355 75c98e7b8f427eb7c625ed391b140c5b ""
  "/usr/local/texlive/2018/texmf-dist/tex/latex/booktabs/booktabs.sty" 1480098823 5869 94335281ffcab47f341cf07ea8220e30 ""
  "/usr/local/texlive/2018/texmf-dist/tex/latex/etoolbox/etoolbox.sty" 1518389458 43862 d90315ae4a46ef887a38b4ccba021f91 ""
  "/usr/local/texlive/2018/texmf-dist/tex/latex/filehook/filehook.sty" 1480098828 12104 88bda8c1ae09e2b6dc29ed32629eafa1 ""
  "/usr/local/texlive/2018/texmf-dist/tex/latex/geometry/geometry.sty" 1522012985 41366 3ed245b911039f45436c2cb62a4d1e62 ""
  "/usr/local/texlive/2018/texmf-dist/tex/latex/graphics-cfg/color.cfg" 1480098830 1213 620bba36b25224fa9b7e1ccb4ecb76fd ""
  "/usr/local/texlive/2018/texmf-dist/tex/latex/graphics-cfg/graphics.cfg" 1480098830 1224 978390e9c2234eab29404bc21b268d1e ""
  "/usr/local/texlive/2018/texmf-dist/tex/latex/graphics-def/pdftex.def" 1515537368 17334 520b9b85ad8a2a48eda3f643e27a5179 ""
  "/usr/local/texlive/2018/texmf-dist/tex/latex/graphics/graphics.sty" 1523134385 15272 5a97061616e0c8b2aa79c6615ff769f4 ""
  "/usr/local/texlive/2018/texmf-dist/tex/latex/graphics/graphicx.sty" 1523134385 9063 d0a305975932762117cd1f06a582f896 ""
  "/usr/local/texlive/2018/texmf-dist/tex/latex/graphics/keyval.sty" 1523134385 2591 6404d0c7d28505fb38ce0d86c2e28ae7 ""
  "/usr/local/texlive/2018/texmf-dist/tex/latex/graphics/trig.sty" 1523134385 3977 cb9221976ed8a183afad65b59aa8629a ""
  "/usr/local/texlive/2018/texmf-dist/tex/latex/hyperref/hpdftex.def" 1518041854 51699 9069fc983fff0db91d59a15af144ad62 ""
  "/usr/local/texlive/2018/texmf-dist/tex/latex/hyperref/hyperref.sty" 1518041854 234088 2c849389d62d41c593d9f5176c4116ab ""
  "/usr/local/texlive/2018/texmf-dist/tex/latex/hyperref/nameref.sty" 1480098831 12949 81e4e808884a8f0e276b69410e234656 ""
  "/usr/local/texlive/2018/texmf-dist/tex/latex/hyperref/pd1enc.def" 1518041854 14098 4e70bf396c7c265bd8b0e5cab3fd3d4d ""
  "/usr/local/texlive/2018/texmf-dist/tex/latex/latexconfig/epstopdf-sys.cfg" 1480098833 678 4792914a8f45be57bb98413425e4c7af ""
  "/usr/local/texlive/2018/texmf-dist/tex/latex/latexconfig/hyperref.cfg" 1480098833 235 6031e5765137be07eed51a510b2b8fb7 ""
  "/usr/local/texlive/2018/texmf-dist/tex/latex/lm/lmodern.sty" 1480098833 1606 c17281c7cff2bbd7ff0173e1433487ec ""
  "/usr/local/texlive/2018/texmf-dist/tex/latex/lm/omllmm.fd" 1480098833 888 44447a3a3af84a22454ef89500942d93 ""
  "/usr/local/texlive/2018/texmf-dist/tex/latex/lm/omslmsy.fd" 1480098833 805 af340a8260c447aa315cfc740ff0152f ""
  "/usr/local/texlive/2018/texmf-dist/tex/latex/lm/omxlmex.fd" 1480098833 566 a94661f7b66063f191960bb7935b6ba2 ""
  "/usr/local/texlive/2018/texmf-dist/tex/latex/lm/ot1lmss.fd" 1480098833 1655 27274ffd69942383838a2081fd5be3d1 ""
  "/usr/local/texlive/2018/texmf-dist/tex/latex/lm/t1lmss.fd" 1480098833 1639 ba1c66ef577aa5cadc2c0fdc691a26ee ""
  "/usr/local/texlive/2018/texmf-dist/tex/latex/ms/everyshi.sty" 1480098835 3878 6aa7c08ff2621006e0603349e40a30a8 ""
  "/usr/local/texlive/2018/texmf-dist/tex/latex/oberdiek/auxhook.sty" 1480098836 3834 4363110eb0ef1eb2b71c8fcbcdb6c357 ""
  "/usr/local/texlive/2018/texmf-dist/tex/latex/oberdiek/epstopdf-base.sty" 1480098836 12095 5337833c991d80788a43d3ce26bd1c46 ""
  "/usr/local/texlive/2018/texmf-dist/tex/latex/oberdiek/grfext.sty" 1480098836 7075 2fe3d848bba95f139de11ded085e74aa ""
  "/usr/local/texlive/2018/texmf-dist/tex/latex/oberdiek/kvoptions.sty" 1480098836 22417 1d9df1eb66848aa31b18a593099cf45c ""
  "/usr/local/texlive/2018/texmf-dist/tex/latex/oberdiek/rerunfilecheck.sty" 1480098836 9581 023642318cef9f4677efe364de1e2a27 ""
  "/usr/local/texlive/2018/texmf-dist/tex/latex/pgf/basiclayer/pgfcore.sty" 1480098837 410 5bf12ea7330e5f12c445332a4fe9a263 ""
  "/usr/local/texlive/2018/texmf-dist/tex/latex/pgf/systemlayer/pgfsys.sty" 1480098837 443 0b2e781830192df35c0fd357cf13e26e ""
  "/usr/local/texlive/2018/texmf-dist/tex/latex/pgf/utilities/pgfrcs.sty" 1480098837 325 2bcd023400636339210573e2b3ee298b ""
  "/usr/local/texlive/2018/texmf-dist/tex/latex/pgf/utilities/xxcolor.sty" 1480098837 2267 e82edfd18fbf4047c6f20ed9467f27db ""
  "/usr/local/texlive/2018/texmf-dist/tex/latex/sansmathaccent/sansmathaccent.sty" 1480098838 4280 a62885a2f2d4221d634eb6cd5559e518 ""
  "/usr/local/texlive/2018/texmf-dist/tex/latex/tools/enumerate.sty" 1523050425 3465 3f63ff30365d38132fb55859c9cabd4d ""
  "/usr/local/texlive/2018/texmf-dist/tex/latex/translator/translator-basic-dictionary-English.dict" 1512078926 3435 0a4d096dde3f8fe682c2aedd33b8137d ""
  "/usr/local/texlive/2018/texmf-dist/tex/latex/translator/translator-bibliography-dictionary-English.dict" 1512078926 903 c6d17f0656e9e1abb172b4faebabd617 ""
  "/usr/local/texlive/2018/texmf-dist/tex/latex/translator/translator-environment-dictionary-English.dict" 1512078926 433 bfb8d1c2c020defd2de8e5c276710094 ""
  "/usr/local/texlive/2018/texmf-dist/tex/latex/translator/translator-months-dictionary-English.dict" 1512078926 1337 9a6c05e8f0c8b3c5f27cbd0e455cf475 ""
  "/usr/local/texlive/2018/texmf-dist/tex/latex/translator/translator-numbers-dictionary-English.dict" 1512078926 1638 2bf1a1dea98f8a4d28033fce76e9cc67 ""
  "/usr/local/texlive/2018/texmf-dist/tex/latex/translator/translator-theorem-dictionary-English.dict" 1512078926 3523 1f9d9b91f7d78b73e74c7e97bca30fb0 ""
  "/usr/local/texlive/2018/texmf-dist/tex/latex/translator/translator.sty" 1515274380 8690 269ca424c32d015df5d558ef9752619d ""
  "/usr/local/texlive/2018/texmf-dist/tex/latex/url/url.sty" 1480098842 12796 8edb7d69a20b857904dd0ea757c14ec9 ""
  "/usr/local/texlive/2018/texmf-dist/tex/latex/xcolor/xcolor.sty" 1480098843 55589 34128738f682d033422ca125f82e5d62 ""
  "/usr/local/texlive/2018/texmf-dist/web2c/texmf.cnf" 1522066949 33362 cf75436e19743e94a92a6b1b9183c434 ""
  "/usr/local/texlive/2018/texmf-var/fonts/map/pdftex/updmap/pdftex.map" 1523934492 2717033 f61a5287d9c22a39a74f1979fe3f905c ""
  "/usr/local/texlive/2018/texmf-var/web2c/pdftex/pdflatex.fmt" 1534088357 4220280 6572b43b8ed9f5e87d463636ee6f7163 ""
  "/usr/local/texlive/2018/texmf.cnf" 1523934483 577 0b39adfd7c93507ff20c9c14c2f1a33f ""
  "img/2-piece-gap-penalty-1.png" 1562782955 28838 178000b91f521eb7233dd0b6b6bd3f02 ""
  "img/2-piece-gap-penalty-2.png" 1562782930 33336 aba528b6307cbf78f4cafd7fc2c100ed ""
  "img/banded-dynamic-programming-heatmap.png" 1562412672 145799 113e72d281549e3cbc6df41108314e9a ""
  "img/banded-dynamic-programming.png" 1562427494 168792 9e7b76a2290a3df4e3d01ee746f659e5 ""
  "img/chaining_1.png" 1562696802 72630 81020e74baed8b9b4b45f0e447584f77 ""
  "img/chaining_2.png" 1562696833 71046 9c5f5b8e32da6b22f431610ddb4ca12b ""
  "img/chaining_alpha.png" 1562671299 4026 8813adebb81af558eca7a2a7df3d4316 ""
  "img/chaining_backtracking.png" 1562694572 72410 a9ebf51d4aba17a87479a4bb5d1f9718 ""
  "img/chaining_beta.png" 1562672176 2642 d4760db081d01a04579e27ef7c7d0ddd ""
  "img/chains-1.png" 1562415794 162580 8b4f0515211e2e3ff97e4467a29a5ccd ""
  "img/chains-2.png" 1562415887 89360 425b9671224160cbdab6bd28c7b1b87f ""
  "img/needleman-wunsch.png" 1562362220 119854 4a28a4d362b90ea5d5f65a075729546f ""
  "img/primary_chains_1.png" 1562772030 1655 fd001e23a48d37f503ec47fc2f125bc0 ""
  "img/primary_chains_2.png" 1562772114 1772 d3f475c43ab1adff8ae0e9d23a752295 ""
  "img/results.png" 1562794593 89099 7d54e461a0f32eda8f67f9d24437a293 ""
  "img/suzuki-kasahara-1.png" 1562783042 31962 f39855827c5935ed463b9f4542b7a286 ""
  "img/suzuki-kasahara-2.png" 1562783062 27783 d0a5847992e6aff7d630f3b9385d9b81 ""
  "img/z-drop-heuristik.png" 1562698269 90764 eb1d25590bc3ced1bba24d40814e714c ""
  "index.aux" 1562794971 11503 cbc5fbfb0f8ea2132cc51f1c15e489c1 ""
  "index.nav" 1562794971 7555 93aa5e4847d46eb88088e688666b4f36 ""
  "index.out" 1562794971 466 5b308c003a9717e3ebeb90ba5761fdda ""
  "index.tex" 1562794967 32196 a0d47db86acb2aaf80a7c55c655f3027 ""
  "index.toc" 1562794971 459 7044ecbfbc7d538636bf774a0dda9de2 ""
  (generated)
  "index.pdf"
  "index.aux"
  "index.toc"
  "/Users/florian/Desktop/Minimap 2 Präsentation/index.log"
  "index.log"
  "index.out"
  "index.nav"
  "/Users/florian/Desktop/Minimap 2 Präsentation/index.pdf"
  "index.snm"
